// Jest Snapshot v1, https://goo.gl/fbAQLP

exports[`renders a list of jobs 1`] = `
<div>
  <div
    className="text-center text-2xl font-bold"
  >
    No jobs to display
  </div>
</div>
`;

exports[`renders a list of jobs 2`] = `
<div>
  <div
    className="w-full bg-white shadow mb-5"
  >
    <div
      className="border-b border-gray-300 py-3 pl-6"
    >
      <div
        className="rounded-full bg-orange-500 py-1 px-3 inline-block text-xl text-white uppercase mr-4 align-top font-bold"
      >
        R
      </div>
      <div
        className="inline-block"
      >
        <div
          className="text-sm font-bold capitalize"
        >
          Robert Gracey
        </div>
        <div
          className="text-xs text-gray-600"
        >
          May 5 2020 @ 12:00 am
        </div>
      </div>
    </div>
    <div
      className="px-6 border-b border-gray-300 py-3 text-gray-600"
    >
      <span
        className="mr-4"
      >
        <i
          aria-hidden="true"
          className="fa fa-map-marker mr-2"
        />
        <span
          className="mr-1"
        >
          Zetland
        </span>
        <span>
          2017
        </span>
      </span>
      <span
        className="mr-4"
      >
        <i
          aria-hidden="true"
          className="fa fa-suitcase mr-2"
        />
        plubming
      </span>
      <span
        className="mr-4"
      >
        Job ID: 
        0
      </span>
    </div>
    <div>
      <div
        className="px-6 border-b border-gray-300"
      >
        <div
          className="pt-3 pb-5 text-gray-600 text-xs"
        >
          Lorem ipsum dolor sit amet, consectetur adipisicing elit. Ullam nulla labore voluptas aliquam laboriosam quis quia vitae voluptatibus adipisci, vel nam maiores tempore 
        </div>
      </div>
      <div
        className="px-6 py-3"
      >
        <button
          className="px-5 py-2 font-bold text-white text-sm bg-orange-500 border-b-4 border-orange-700 mr-4 hover:bg-orange-600"
          onClick={[Function]}
        >
          Accept
        </button>
        <button
          className="px-5 py-2 font-bold text-gray-700 text-sm bg-gray-400 border-b-4 border-gray-700 mr-6 hover:bg-gray-600 hover:text-white"
          onClick={[Function]}
        >
          Decline
        </button>
        <span
          className="text-gray-600"
        >
          <span
            className="font-bold mr-2"
          >
            $
            25
          </span>
          Lead Invitation
        </span>
      </div>
    </div>
  </div>
  <div
    className="w-full bg-white shadow mb-5"
  >
    <div
      className="border-b border-gray-300 py-3 pl-6"
    >
      <div
        className="rounded-full bg-orange-500 py-1 px-3 inline-block text-xl text-white uppercase mr-4 align-top font-bold"
      >
        R
      </div>
      <div
        className="inline-block"
      >
        <div
          className="text-sm font-bold capitalize"
        >
          Robert Gracey
        </div>
        <div
          className="text-xs text-gray-600"
        >
          May 5 2020 @ 12:00 am
        </div>
      </div>
    </div>
    <div
      className="px-6 border-b border-gray-300 py-3 text-gray-600"
    >
      <span
        className="mr-4"
      >
        <i
          aria-hidden="true"
          className="fa fa-map-marker mr-2"
        />
        <span
          className="mr-1"
        >
          Zetland
        </span>
        <span>
          2017
        </span>
      </span>
      <span
        className="mr-4"
      >
        <i
          aria-hidden="true"
          className="fa fa-suitcase mr-2"
        />
        plubming
      </span>
      <span
        className="mr-4"
      >
        Job ID: 
        0
      </span>
    </div>
    <div>
      <div
        className="px-6 border-b border-gray-300"
      >
        <div
          className="pt-3 pb-5 text-gray-600 text-xs"
        >
          Lorem ipsum dolor sit amet, consectetur adipisicing elit. Ullam nulla labore voluptas aliquam laboriosam quis quia vitae voluptatibus adipisci, vel nam maiores tempore 
        </div>
      </div>
      <div
        className="px-6 py-3"
      >
        <button
          className="px-5 py-2 font-bold text-white text-sm bg-orange-500 border-b-4 border-orange-700 mr-4 hover:bg-orange-600"
          onClick={[Function]}
        >
          Accept
        </button>
        <button
          className="px-5 py-2 font-bold text-gray-700 text-sm bg-gray-400 border-b-4 border-gray-700 mr-6 hover:bg-gray-600 hover:text-white"
          onClick={[Function]}
        >
          Decline
        </button>
        <span
          className="text-gray-600"
        >
          <span
            className="font-bold mr-2"
          >
            $
            25
          </span>
          Lead Invitation
        </span>
      </div>
    </div>
  </div>
  <div
    className="w-full bg-white shadow mb-5"
  >
    <div
      className="border-b border-gray-300 py-3 pl-6"
    >
      <div
        className="rounded-full bg-orange-500 py-1 px-3 inline-block text-xl text-white uppercase mr-4 align-top font-bold"
      >
        R
      </div>
      <div
        className="inline-block"
      >
        <div
          className="text-sm font-bold capitalize"
        >
          Robert Gracey
        </div>
        <div
          className="text-xs text-gray-600"
        >
          May 5 2020 @ 12:00 am
        </div>
      </div>
    </div>
    <div
      className="px-6 border-b border-gray-300 py-3 text-gray-600"
    >
      <span
        className="mr-4"
      >
        <i
          aria-hidden="true"
          className="fa fa-map-marker mr-2"
        />
        <span
          className="mr-1"
        >
          Zetland
        </span>
        <span>
          2017
        </span>
      </span>
      <span
        className="mr-4"
      >
        <i
          aria-hidden="true"
          className="fa fa-suitcase mr-2"
        />
        plubming
      </span>
      <span
        className="mr-4"
      >
        Job ID: 
        0
      </span>
    </div>
    <div>
      <div
        className="px-6 border-b border-gray-300"
      >
        <div
          className="pt-3 pb-5 text-gray-600 text-xs"
        >
          Lorem ipsum dolor sit amet, consectetur adipisicing elit. Ullam nulla labore voluptas aliquam laboriosam quis quia vitae voluptatibus adipisci, vel nam maiores tempore 
        </div>
      </div>
      <div
        className="px-6 py-3"
      >
        <button
          className="px-5 py-2 font-bold text-white text-sm bg-orange-500 border-b-4 border-orange-700 mr-4 hover:bg-orange-600"
          onClick={[Function]}
        >
          Accept
        </button>
        <button
          className="px-5 py-2 font-bold text-gray-700 text-sm bg-gray-400 border-b-4 border-gray-700 mr-6 hover:bg-gray-600 hover:text-white"
          onClick={[Function]}
        >
          Decline
        </button>
        <span
          className="text-gray-600"
        >
          <span
            className="font-bold mr-2"
          >
            $
            25
          </span>
          Lead Invitation
        </span>
      </div>
    </div>
  </div>
</div>
`;
